{
  "development": {
    "username": "postgres",
    "password": "SPS@2021#",
    "database": "test_hieu",
    "host": "18.142.62.133",
    "port": "5432",
    "dialect": "postgres",
    "logging" : false,
    "timeszone": "+07:00"
  },
  "test": {
    "username": "root",
    "password": null,
    "database": "database_test",
    "host": "127.0.0.1",
    "dialect": "mysql"
  },
  "production": {
    "username": "root",
    "password": null,
    "database": "database_production",
    "host": "127.0.0.1",
    "dialect": "mysql"
  }
}
